{
  "version": "1.0",
  "defaultProvider": "cdnjs",
  "libraries": [
    {
      "provider": "cdnjs",
      "library": "bootstrap-table@1.15.4",
      "destination": "wwwroot/lib/bootstrap/css/"
    },
    {
      "provider": "unpkg",
      "library": "jquery-ajax-unobtrusive@3.2.6",
      "destination": "wwwroot/lib/jquery-ajax-unobtrusive/",
      "files": [ "dist/jquery.unobtrusive-ajax.js", "dist/jquery.unobtrusive-ajax.min.js" ]
    }
  ]
}